{
	"id": "87fa990a-8779-4631-849d-b677d88acac3",
	"name": "Localhost Copy",
	"values": [
		{
			"key": "baseUrl",
			"value": "http://production-env.eba-wkw2qffg.us-west-2.elasticbeanstalk.com",
			"enabled": true
		}
	],
	"_postman_variable_scope": "environment",
	"_postman_exported_at": "2022-01-20T00:47:03.293Z",
	"_postman_exported_using": "Postman/9.9.3"
}